{
    "__COMMENT": "This is a simple circulatory system imitating more complex ADAN56 model with SimpleFlow heart in json format",
    "InitialTimeStep": 1e-5,
    "Time0": 0,
    "TimeComp0": 0,
    "CourantNumber": 0.5,
    "BloodDensity": 1.04,
    "BloodViscosity": 4e-2,
    "dx": 0.1,
    "Zeta": 2,
    "NumSchemeGamma" : 0,
    "ADAN56_Global": {
        "E_Young": 2250000,
        "P_exterior": 0,
        "P_diastolic": 100000,
        "ca": 0.2802,
        "cb": -5.053,
        "cc": 0.1324,
        "cd": -0.1114
    },
    "SimpleVertices": {
        "heart":[0,0], "2":[100,0], "3":[200,0]
    },

    "Edges": {
	"aortic_arch_I": {
		"Type": "ADAN56",
		"v1": "heart",
		"v2": "2",
		"length": 4.441376550000001,
		"RadProx": 1.595,
		"RadDistal": 1.4161133
	},
	"aortic_arch_II": {
		"Type": "ADAN56",
		"v1": "2",
		"v2": "3",
		"length": 3,
		"RadProx": 1.4161133,
		"RadDistal": 1.29524399
	}
    },
    "MetaVertices": {
        "SimpleFlow": {
            "Type": "SimpleFlow",
            "edge": "aortic_arch_I",
            "vertex": "heart",
            "Stroke_volume": 110
        },
        "Internal_vertex": {
            "Type": "Internal",
            "edges": ["aortic_arch_I", "aortic_arch_II"],
            "vertex": "2"
        },
        "Windkessel": {
            "Type": "Windkessel_vertex",
            "edge": "aortic_arch_II",
            "vertex": "3",
            "P_out": 7000,
            "comment_P_out": "its around 5 mmhg",
            "R1": 40,
            "R2": 1050,
            "C": 1.3e-3
        }
    }
}
