{
    "__COMMENT": "This is an example of simple circulatory system made of ascending aorta only in json format",
    "InitialTimeStep": 1e-5,
    "Time0": 0,
    "TimeComp0": 0,
    "CourantNumber": 0.9,
    "BloodDensity": 1.04,
    "BloodViscosity": 4e-2,
    "Zeta": 2,
    "dx": 0.05,
    "NumSchemeGamma" : 0,
    "ADAN56_Global": {
        "E_Young": 2250000,
        "P_exterior": 0,
        "P_diastolic": 100000,
        "ca": 0.2802,
        "cb": -5.053,
        "cc": 0.1324,
        "cd": -0.1114
    },
    "SimpleVertices": {
        "heart":[0,0], "pumpConnectNode":[100,0], "2":[200,0]
    },

    "Edges": {
	"aortic_arch_Ip1": {
		"Type": "ADAN56",
		"v1": "heart",
		"v2": "pumpConnectNode",
		"length": 4.44137655,
		"RadProx": 1.595,
		"RadDistal": 1.4161133
	},
	"aortic_arch_Ip2": {
		"Type": "ADAN56",
		"v1": "pumpConnectNode",
		"v2": "2",
		"length": 3,
		"RadProx": 1.4161133,
		"RadDistal": 1.29524399
	}
    },
    "MetaVertices": {    
        "Windkessel": {
            "Type": "Windkessel_vertex",
            "edge": "aortic_arch_Ip2",
            "vertex": "2",
            "P_out": 7000,
            "comment_P_out": "its around 5 mmhg",
            "R1": 60,
            "R2": 1500,
            "C": 1e-3
        }
    }
}
