{
    "__COMMENT": "This is an example of pump and heart failure model in json format",

    "MetaVertices": {
        "Heart_Pump": {
            "Type": "Heart_AV_pump",
            "edge0": "aortic_arch_Ip1",
            "edge1": "aortic_arch_Ip2",
            "vertex0": "heart",
            "vertex1": "pumpConnectNode",

            "ImpellerSpeed0": 0,

            "pulmVeinsPressure": 10,
            "LV_EDPVR": 0.04,
            "LV_ESPVR": 0.44,
            "LV_initialVolume": 210,
            "LV_V0": 20,

            "LA_V0": 4,
            "LA_ESPVR": 1.1,
            "LA_EDPVR": 0.3,
            "valvePressureForceCoeff": 10000,

            "L_av" : 5e-5,
            "L_pu" : 0.01,
            "L_mi" : 5e-10,
            "B_pu_const" : 0.0004,
            "B_av_denomin" : 500,
            "B_mi_denomin" : 300,


            "LA_dynamicResistanceCoeff": 0.0005,
            "LV_dynamicResistanceCoeff": 0.0005,
            "LA_inertiaCoeff": 1e-7,
            "LV_inertiaCoeff": 1e-7,
            "valveFrictionalForceCoeff": 50,

            "a": -0.365,
            "b": -6.133e-4,
            "c": 1.735e-6,
            "d": -85.44,
            "e": -3.548e-4,
            "R_rec": 3.957,
            "L_per": 15,
            "R_per": 2e-1,
            "S_tube": 1.1
        }
    }
}
