{
    "__COMMENT": "This is an example of ADAN56 model ready to be used with any heart model in json format",
    "InitialTimeStep": 1e-5,
    "Time0": 0,
    "TimeComp0": 0,
    "CourantNumber": 0.9,
    "BloodDensity": 1.04,
    "BloodViscosity": 4e-2,
    "Zeta": 2,
    "dx": 0.05,
    "NumSchemeGamma" : 0,
    "SimpleVertices": {
        "heart": [494,365],
        "coronaryArtConnect": [496, 330],
	"pumpConnectNode": [500, 300],
        "2": [527, 279],
        "3": [509, 264],
        "4": [566, 273],
        "5": [486, 258],
        "6": [504, 133],
        "VR_BASIL_VL": [567, 107],
        "8": [406, 278],
        "9": [342, 387],
        "10": [308, 570],
        "11": [198, 708],
        "12": [310, 616],
        "13": [267, 652],
        "14": [279, 726],
        "15": [248, 689],
        "16": [436, 73],
        "ICR_MCR_ACR_PCommR": [491, -19],
        "18": [629, 146],
        "19": [600, 288],
        "20": [701, 65],
        "ICL_MCL_ACL_PCommL": [654, -23],
        "22": [638, 272],
        "23": [622, 362],
       
        "BASIL_30_31": [572, 39],
        "PCR_Terminal": [523, 80],
        "PCL_Terminal": [617, 87],
        "PCR_PCommR_31": [531, 32],
        "PCL_PCommL_30": [617, 38],
        "ACoA_R": [557, -63],
        "RACA_A2_Terminal": [556, -151],
        "ACoA_L": [601, -62],
        "LACA_A2_Terminal": [605, -155],
        "MCR_Terminal": [421, -42],
        "MCL_Terminal": [725, -44],



        "25": [720, 289],
        "26": [776, 387],
        "27": [800, 562],
        "28": [898, 693],
        "29": [777, 608],
        "30": [819, 636],
        "31": [844, 717],
        "32": [844, 666],
        "33": [617, 393],
        "34": [512, 410],
        "35": [615, 411],
        "36": [730, 411],
        "37": [613, 429],
        "38": [513, 447],
        "39": [610, 451],
        "40": [728, 451],
        "41": [604, 496],
        "42": [593, 561],
        "43": [520, 560],
        "44": [586, 600],
        "45": [506, 582],
        "46": [490, 560],
        "47": [467, 580],
        "48": [469, 546],
        "49": [700, 605],
        "50": [576, 651],
        "51": [634, 645],
        "52": [572, 673],
        "53": [526, 676],
        "54": [566, 710],
        "55": [619, 716],
        "56": [548, 808],
        "57": [465, 861],
        "58": [629, 884],
        "59": [415, 930],
        "60": [466, 934],
        "61": [383, 1023],
        "62": [317, 1163],
        "63": [383, 1265],
        "64": [361, 1390],
        "65": [324, 1623],
        "66": [372, 1417],
        "67": [389, 1473],
        "68": [413, 1618],
        "69": [658, 940],
        "70": [600, 947],
        "71": [687, 1024],
        "72": [755, 1157],
        "73": [682, 1273],
        "74": [690, 1381],
        "75": [727, 1624],
        "76": [670, 1411],
        "77": [650, 1471],
        "78": [628, 1618],

    "Coronary36-37-40-41": [796, 371],
	"Coronary37-38-39": [793, 311],
	"Coronary41-42-49": [630, 356],
	"Coronary42-43-46": [566, 253],
	"Coronary43-44-45": [604, 197],
	"Coronary46-47-48": [473, 200],
	"Coronary49-50-55": [428, 410],
	"Coronary50-51-52": [308, 306],
	"Coronary52-53-54": [273, 204],
	"Coronary55-56-59": [372, 553],
	"Coronary56-57-58": [253, 558],
	"Coronary59-60-61": [306, 652],
	"Coronary61-62-63": [263, 776],
	"Coronary63-64-65": [228, 876],
	
	"Coronary39": [852, 269],
	"Coronary38": [724, 277],
	"Coronary40": [736, 434],
	"Coronary44": [591, 86],
	"Coronary45": [672, 84],
	"Coronary47": [400, 96],
	"Coronary48": [500, 98],
	"Coronary51": [241, 376],
	"Coronary53": [210, 118],
	"Coronary54": [316, 115],
	"Coronary57": [197, 497],
	"Coronary58": [185, 609],
	"Coronary60": [210, 680],
	"Coronary62": [165, 800],
	"Coronary64": [143, 914],
	"Coronary65": [250, 954],

	"Coronary3-4-19": [832, 512],
	"Coronary4-5-8": [720, 560],
	"Coronary5-6-7": [690, 630],
	"Coronary8-9-12": [586, 567],
	"Coronary9-10-11": [505, 544],
	"Coronary12-13-14": [517, 657],
	"Coronary14-15-16": [448, 725],
	"Coronary16-17-18": [396, 798],
	"Coronary19-20-25": [836, 655],
	"Coronary20-21-22": [891, 724],
	"Coronary22-23-24": [952, 752],
	"Coronary25-26-29": [754, 773],
	"Coronary26-27-28": [674, 832],
	"Coronary29-30-31": [778, 856],
	"Coronary31-32-33": [826, 927],
	"Coronary33-34-35": [802, 987],

	"Coronary6": [626, 683],
	"Coronary7": [716, 692],
	"Coronary10": [487, 476],
	"Coronary11": [457, 597],
	"Coronary13": [550, 734],
	"Coronary15": [470, 790],
	"Coronary17": [423, 870],
	"Coronary18": [350, 873],
	"Coronary21": [861, 780],
	"Coronary23": [1012, 724],
	"Coronary24": [960, 808],
	"Coronary27": [588, 888],
	"Coronary28": [676, 911],
	"Coronary30": [725, 923],
	"Coronary32": [899, 915],
	"Coronary34": [729, 1031],
	"Coronary35": [840, 1040]
 


    },
        


    "Edges": {

	"RCA_start": {
		"Type": "Classic",
		"v1": "coronaryArtConnect",
		"v2": "Coronary36-37-40-41",
		"length": 1.74,
            	"width": 0.346,
            	"C": 1300
	},
	"Coronary37": {
		"Type": "Classic",
		"v1": "Coronary36-37-40-41",
		"v2": "Coronary37-38-39",
		"length": 2.35,
            	"width": 0.184,
            	"C": 1300
	},
	"Coronary38": {
		"Type": "Classic",
		"v1": "Coronary37-38-39",
		"v2": "Coronary38",
		"length": 0.38,
            	"width": 0.09,
            	"C": 1300
	},
	"Coronary39": {
		"Type": "Classic",
		"v1": "Coronary37-38-39",
		"v2": "Coronary39",
		"length": 0.27,
            	"width": 0.088,
            	"C": 1300
	},
	"Coronary39": {
		"Type": "Classic",
		"v1": "Coronary37-38-39",
		"v2": "Coronary39",
		"length": 0.27,
            	"width": 0.088,
            	"C": 1300
	},
	"Coronary40": {
		"Type": "Classic",
		"v1": "Coronary36-37-40-41",
		"v2": "Coronary40",
		"length": 2.05,
            	"width": 0.195,
            	"C": 1300
	},
	"Coronary41": {
		"Type": "Classic",
		"v1": "Coronary36-37-40-41",
		"v2": "Coronary41-42-49",
		"length": 2.42,
            	"width": 0.326,
            	"C": 1300
	},
	"Coronary42": {
		"Type": "Classic",
		"v1": "Coronary41-42-49",
		"v2": "Coronary42-43-46",
		"length": 0.81,
            	"width": 0.253,
            	"C": 1300
	},
	"Coronary43": {
		"Type": "Classic",
		"v1": "Coronary42-43-46",
		"v2": "Coronary43-44-45",
		"length": 1.86,
            	"width": 0.156,
            	"C": 1300
	},
	"Coronary44": {
		"Type": "Classic",
		"v1": "Coronary43-44-45",
		"v2": "Coronary44",
		"length": 0.75,
            	"width": 0.09,
            	"C": 1300
	},
	"Coronary45": {
		"Type": "Classic",
		"v1": "Coronary43-44-45",
		"v2": "Coronary45",
		"length": 0.62,
            	"width": 0.088,
            	"C": 1300
	},
	"Coronary46": {
		"Type": "Classic",
		"v1": "Coronary42-43-46",
		"v2": "Coronary46-47-48",
		"length": 2.95,
            	"width": 0.159,
            	"C": 1300
	},
	"Coronary47": {
		"Type": "Classic",
		"v1": "Coronary46-47-48",
		"v2": "Coronary47",
		"length": 0.47,
            	"width": 0.092,
            	"C": 1300
	},
	"Coronary48": {
		"Type": "Classic",
		"v1": "Coronary46-47-48",
		"v2": "Coronary48",
		"length": 0.76,
            	"width": 0.093,
            	"C": 1300
	},
	"Coronary49": {
		"Type": "Classic",
		"v1": "Coronary41-42-49",
		"v2": "Coronary49-50-55",
		"length": 4.53,
            	"width": 0.257,
            	"C": 1300
	},
	"Coronary50": {
		"Type": "Classic",
		"v1": "Coronary49-50-55",
		"v2": "Coronary50-51-52",
		"length": 1.84,
            	"width": 0.197,
            	"C": 1300
	},
	"Coronary51": {
		"Type": "Classic",
		"v1": "Coronary50-51-52",
		"v2": "Coronary51",
		"length": 1.34,
            	"width": 0.107,
            	"C": 1300
	},
	"Coronary52": {
		"Type": "Classic",
		"v1": "Coronary50-51-52",
		"v2": "Coronary52-53-54",
		"length": 2.34,
            	"width": 0.152,
            	"C": 1300
	},
	"Coronary53": {
		"Type": "Classic",
		"v1": "Coronary52-53-54",
		"v2": "Coronary53",
		"length": 3.17,
            	"width": 0.072,
            	"C": 1300
	},
	"Coronary54": {
		"Type": "Classic",
		"v1": "Coronary52-53-54",
		"v2": "Coronary54",
		"length": 1.05,
            	"width": 0.054,
            	"C": 1300
	},
	"Coronary55": {
		"Type": "Classic",
		"v1": "Coronary49-50-55",
		"v2": "Coronary55-56-59",
		"length": 4.6,
            	"width": 0.185,
            	"C": 1300
	},
	"Coronary56": {
		"Type": "Classic",
		"v1": "Coronary55-56-59",
		"v2": "Coronary56-57-58",
		"length": 3.37,
            	"width": 0.141,
            	"C": 1300
	},
	"Coronary57": {
		"Type": "Classic",
		"v1": "Coronary56-57-58",
		"v2": "Coronary57",
		"length": 2.34,
            	"width": 0.06,
            	"C": 1300
	},
	"Coronary58": {
		"Type": "Classic",
		"v1": "Coronary56-57-58",
		"v2": "Coronary58",
		"length": 1.88,
            	"width": 0.067,
            	"C": 1300
	},
	"Coronary59": {
		"Type": "Classic",
		"v1": "Coronary55-56-59",
		"v2": "Coronary59-60-61",
		"length": 2.42,
            	"width": 0.15,
            	"C": 1300
	},
	"Coronary60": {
		"Type": "Classic",
		"v1": "Coronary59-60-61",
		"v2": "Coronary60",
		"length": 3.14,
            	"width": 0.088,
            	"C": 1300
	},
	"Coronary61": {
		"Type": "Classic",
		"v1": "Coronary59-60-61",
		"v2": "Coronary61-62-63",
		"length": 0.66,
            	"width": 0.134,
            	"C": 1300
	},
	"Coronary62": {
		"Type": "Classic",
		"v1": "Coronary61-62-63",
		"v2": "Coronary62",
		"length": 1.47,
            	"width": 0.09,
            	"C": 1300
	},
	"Coronary63": {
		"Type": "Classic",
		"v1": "Coronary61-62-63",
		"v2": "Coronary63-64-65",
		"length": 0.87,
            	"width": 0.115,
            	"C": 1300
	},
	"Coronary64": {
		"Type": "Classic",
		"v1": "Coronary63-64-65",
		"v2": "Coronary64",
		"length": 2.75,
            	"width": 0.06,
            	"C": 1300
	},
	"Coronary65": {
		"Type": "Classic",
		"v1": "Coronary63-64-65",
		"v2": "Coronary65",
		"length": 1.23,
            	"width": 0.042,
            	"C": 1300
	},





	"LCA_start": {
		"Type": "Classic",
		"v1": "coronaryArtConnect",
		"v2": "Coronary3-4-19",
		"length": 2.61,
            	"width": 0.496,
            	"C": 1200
	},
	"Coronary4": {
		"Type": "Classic",
		"v1": "Coronary3-4-19",
		"v2": "Coronary4-5-8",
		"length": 1.83,
            	"width": 0.414,
            	"C": 1200
	},
	"Coronary5": {
		"Type": "Classic",
		"v1": "Coronary4-5-8",
		"v2": "Coronary5-6-7",
		"length": 2.45,
            	"width": 0.178,
            	"C": 1200
	},
	"Coronary6": {
		"Type": "Classic",
		"v1": "Coronary5-6-7",
		"v2": "Coronary6",
		"length": 0.65,
            	"width": 0.09,
            	"C": 1200
	},
	"Coronary7": {
		"Type": "Classic",
		"v1": "Coronary5-6-7",
		"v2": "Coronary7",
		"length": 1.58,
            	"width": 0.09,
            	"C": 1200
	},
	"Coronary8": {
		"Type": "Classic",
		"v1": "Coronary4-5-8",
		"v2": "Coronary8-9-12",
		"length": 2.04,
            	"width": 0.304,
            	"C": 1200
	},
	"Coronary9": {
		"Type": "Classic",
		"v1": "Coronary8-9-12",
		"v2": "Coronary9-10-11",
		"length": 2.76,
            	"width": 0.196,
            	"C": 1200
	},
	"Coronary10": {
		"Type": "Classic",
		"v1": "Coronary9-10-11",
		"v2": "Coronary10",
		"length": 3.3,
            	"width": 0.089,
            	"C": 1200
	},
	"Coronary11": {
		"Type": "Classic",
		"v1": "Coronary9-10-11",
		"v2": "Coronary11",
		"length": 1.98,
            	"width": 0.096,
            	"C": 1200
	},
	"Coronary12": {
		"Type": "Classic",
		"v1": "Coronary8-9-12",
		"v2": "Coronary12-13-14",
		"length": 1.32,
            	"width": 0.231,
            	"C": 1200
	},
	"Coronary13": {
		"Type": "Classic",
		"v1": "Coronary12-13-14",
		"v2": "Coronary13",
		"length": 2.66,
            	"width": 0.111,
            	"C": 1200
	},
	"Coronary14": {
		"Type": "Classic",
		"v1": "Coronary12-13-14",
		"v2": "Coronary14-15-16",
		"length": 3.67,
            	"width": 0.178,
            	"C": 1200
	},
	"Coronary15": {
		"Type": "Classic",
		"v1": "Coronary14-15-16",
		"v2": "Coronary15",
		"length": 2.26,
            	"width": 0.098,
            	"C": 1200
	},
	"Coronary16": {
		"Type": "Classic",
		"v1": "Coronary14-15-16",
		"v2": "Coronary16-17-18",
		"length": 1.94,
            	"width": 0.105,
            	"C": 1200
	},
	"Coronary17": {
		"Type": "Classic",
		"v1": "Coronary16-17-18",
		"v2": "Coronary17",
		"length": 0.97,
            	"width": 0.09,
            	"C": 1200
	},
	"Coronary18": {
		"Type": "Classic",
		"v1": "Coronary16-17-18",
		"v2": "Coronary18",
		"length": 1.84,
            	"width": 0.09,
            	"C": 1200
	},
	"Coronary19": {
		"Type": "Classic",
		"v1": "Coronary3-4-19",
		"v2": "Coronary19-20-25",
		"length": 3.13,
            	"width": 0.392,
            	"C": 1200
	},
	"Coronary20": {
		"Type": "Classic",
		"v1": "Coronary19-20-25",
		"v2": "Coronary20-21-22",
		"length": 4.97,
            	"width": 0.291,
            	"C": 1200
	},
	"Coronary21": {
		"Type": "Classic",
		"v1": "Coronary20-21-22",
		"v2": "Coronary21",
		"length": 2.16,
            	"width": 0.13,
            	"C": 1200
	},
	"Coronary22": {
		"Type": "Classic",
		"v1": "Coronary20-21-22",
		"v2": "Coronary22-23-24",
		"length": 4.05,
            	"width": 0.184,
            	"C": 1200
	},
	"Coronary23": {
		"Type": "Classic",
		"v1": "Coronary22-23-24",
		"v2": "Coronary23",
		"length": 2.49,
            	"width": 0.09,
            	"C": 1200
	},
	"Coronary24": {
		"Type": "Classic",
		"v1": "Coronary22-23-24",
		"v2": "Coronary24",
		"length": 1.97,
            	"width": 0.088,
            	"C": 1200
	},
	"Coronary25": {
		"Type": "Classic",
		"v1": "Coronary19-20-25",
		"v2": "Coronary25-26-29",
		"length": 2.47,
            	"width": 0.302,
            	"C": 1200
	},
	"Coronary26": {
		"Type": "Classic",
		"v1": "Coronary25-26-29",
		"v2": "Coronary26-27-28",
		"length": 2.45,
            	"width": 0.178,
            	"C": 1200
	},
	"Coronary27": {
		"Type": "Classic",
		"v1": "Coronary26-27-28",
		"v2": "Coronary27",
		"length": 1.5,
            	"width": 0.106,
            	"C": 1200
	},
	"Coronary28": {
		"Type": "Classic",
		"v1": "Coronary26-27-28",
		"v2": "Coronary28",
		"length": 1.11,
            	"width": 0.103,
            	"C": 1200
	},
	"Coronary29": {
		"Type": "Classic",
		"v1": "Coronary25-26-29",
		"v2": "Coronary29-30-31",
		"length": 2.58,
            	"width": 0.239,
            	"C": 1200
	},
	"Coronary30": {
		"Type": "Classic",
		"v1": "Coronary29-30-31",
		"v2": "Coronary30",
		"length": 1.34,
            	"width": 0.107,
            	"C": 1200
	},
	"Coronary31": {
		"Type": "Classic",
		"v1": "Coronary29-30-31",
		"v2": "Coronary31-32-33",
		"length": 0.71,
            	"width": 0.187,
            	"C": 1200
	},
	"Coronary32": {
		"Type": "Classic",
		"v1": "Coronary31-32-33",
		"v2": "Coronary32",
		"length": 2.1,
            	"width": 0.102,
            	"C": 1200
	},
	"Coronary33": {
		"Type": "Classic",
		"v1": "Coronary31-32-33",
		"v2": "Coronary33-34-35",
		"length": 2.22,
            	"width": 0.144,
            	"C": 1200
	},
	"Coronary34": {
		"Type": "Classic",
		"v1": "Coronary33-34-35",
		"v2": "Coronary34",
		"length": 1.23,
            	"width": 0.09,
            	"C": 1200
	},
	"Coronary35": {
		"Type": "Classic",
		"v1": "Coronary33-34-35",
		"v2": "Coronary35",
		"length": 0.71,
            	"width": 0.187,
            	"C": 1200
	},




"aortic_arch_Ip0": {
"Type": "Classic",
"v1": "heart",
"v2": "coronaryArtConnect",
"length": 1.5,
"width": 3.01111,
"C": 400
},
"aortic_arch_Ip1": {
"Type": "Classic",
"v1": "coronaryArtConnect",
"v2": "pumpConnectNode",
"length": 2.94,
"width": 3.01111,
"C": 400
},
"aortic_arch_Ip2": {
"Type": "Classic",
"v1": "pumpConnectNode",
"v2": "2",
"length": 3,
"width": 2.71136,
"C": 400
},
"brachiocephalic_trunk": {
"Type": "Classic",
"v1": "2",
"v2": "3",
"length": 4.73512778,
"width": 1.28868,
"C": 440
},
"aortic_arch_II": {
"Type": "Classic",
"v1": "2",
"v2": "4",
"length": 0.96038364,
"width": 2.5518,
"C": 410
},
"subclavian_R_I": {
"Type": "Classic",
"v1": "3",
"v2": "5",
"length": 1.5740629,
"width": 0.907298,
"C": 470
},
"common_carotid_R": {
"Type": "Classic",
"v1": "3",
"v2": "6",
"length": 8.12193581,
"width": 0.780183,
"C": 500
},
"vertebral_R": {
"Type": "Classic",
"v1": "5",
"v2": "VR_BASIL_VL",
"length": 20.44531883,
"width": 0.267054,
"C": 630
},
"subclavian_R_II": {
"Type": "Classic",
"v1": "5",
"v2": "8",
"length": 4.11187821,
"width": 0.647835,
"C": 520
},
"axillary_R": {
"Type": "Classic",
"v1": "8",
"v2": "9",
"length": 12.00020481,
"width": 0.4378,
"C": 570
},
"brachial_R": {
"Type": "Classic",
"v1": "9",
"v2": "10",
"length": 22.31082046,
"width": 0.390527,
"C": 580
},
"radial_R": {
"Type": "Classic",
"v1": "10",
"v2": "11",
"length": 30.08857661,
"width": 0.2756,
"C": 625
},
"ulnar_R_I": {
"Type": "Classic",
"v1": "10",
"v2": "12",
"length": 2.9756240800000002,
"width": 0.2816,
"C": 620
},
"common_interosseous_R": {
"Type": "Classic",
"v1": "12",
"v2": "13",
"length": 1.62660658,
"width": 0.1918,
"C": 660
},
"ulnar_R_II": {
"Type": "Classic",
"v1": "12",
"v2": "14",
"length": 23.92616296,
"width": 0.2816,
"C": 620
},
"posterior_interosseous_R": {
"Type": "Classic",
"v1": "13",
"v2": "15",
"length": 23.05613685,
"width": 0.1352,
"C": 690
},
"external_carotid_R": {
"Type": "Classic",
"v1": "6",
"v2": "16",
"length": 6.0896877400000005,
"width": 0.453094,
"C": 560
},
"internal_carotid_R": {
"Type": "Classic",
"v1": "6",
"v2": "ICR_MCR_ACR_PCommR",
"length": 13.210996280000002,
"width": 0.553076,
"C": 530
},
"common_carotid_L": {
"Type": "Classic",
"v1": "4",
"v2": "18",
"length": 12.131903920000001,
"width": 0.780183,
"C": 490
},
"aortic_arch_III": {
"Type": "Classic",
"v1": "4",
"v2": "19",
"length": 0.69785313,
"width": 2.485,
"C": 410
},
"external_carotid_L": {
"Type": "Classic",
"v1": "18",
"v2": "20",
"length": 6.089705990000001,
"width": 0.453094,
"C": 560
},
"internal_carotid_L": {
"Type": "Classic",
"v1": "18",
"v2": "ICL_MCL_ACL_PCommL",
"length": 13.21103835,
"width": 0.553076,
"C": 530
},
"subclavian_L_I": {
"Type": "Classic",
"v1": "19",
"v2": "22",
"length": 4.93841253,
"width": 0.837547,
"C": 480
},
"aortic_arch_IV": {
"Type": "Classic",
"v1": "19",
"v2": "23",
"length": 4.30576701,
"width": 2.28345,
"C": 410
},
"vertebral_L": {
"Type": "Classic",
"v1": "22",
"v2": "VR_BASIL_VL",
"length": 20.41538087,
"width": 0.267054,
"C": 630
},
"subclavian_L_II": {
"Type": "Classic",
"v1": "22",
"v2": "25",
"length": 4.11187859,
"width": 0.578084,
"C": 530
},
"axillary_L": {
"Type": "Classic",
"v1": "25",
"v2": "26",
"length": 12.0002137,
"width": 0.4378,
"C": 570
},
"brachial_L": {
"Type": "Classic",
"v1": "26",
"v2": "27",
"length": 22.31087827,
"width": 0.390527,
"C": 580
},
"radial_L": {
"Type": "Classic",
"v1": "27",
"v2": "28",
"length": 31.08844061,
"width": 0.2756,
"C": 625
},
"ulnar_L_I": {
"Type": "Classic",
"v1": "27",
"v2": "29",
"length": 2.97557899,
"width": 0.2816,
"C": 620
},
"common_interosseous_L": {
"Type": "Classic",
"v1": "29",
"v2": "30",
"length": 1.62660627,
"width": 0.1918,
"C": 660
},
"ulnar_L_II": {
"Type": "Classic",
"v1": "29",
"v2": "31",
"length": 23.926215889999998,
"width": 0.2816,
"C": 620
},
"posterior_interosseous_L": {
"Type": "Classic",
"v1": "30",
"v2": "32",
"length": 23.05624697,
"width": 0.1352,
"C": 690
},
"thoracic_aorta_I": {
"Type": "Classic",
"v1": "23",
"v2": "33",
"length": 0.9897081300000001,
"width": 2.09138,
"C": 415
},
"posterior_intercostal_T6_R": {
"Type": "Classic",
"v1": "33",
"v2": "34",
"length": 19.68810988,
"width": 0.28,
"C": 620
},
"thoracic_aorta_II": {
"Type": "Classic",
"v1": "33",
"v2": "35",
"length": 0.7880384400000001,
"width": 2.05794,
"C": 415
},
"posterior_intercostal_T6_L": {
"Type": "Classic",
"v1": "35",
"v2": "36",
"length": 17.803022,
"width": 0.28,
"C": 622
},
"thoracic_aorta_III": {
"Type": "Classic",
"v1": "35",
"v2": "37",
"length": 1.55559176,
"width": 2.01384,
"C": 415
},
"posterior_intercostal_T7_R": {
"Type": "Classic",
"v1": "37",
"v2": "38",
"length": 20.15603447,
"width": 0.31,
"C": 610
},
"thoracic_aorta_IV": {
"Type": "Classic",
"v1": "37",
"v2": "39",
"length": 0.5327048600000001,
"width": 1.97456,
"C": 415
},
"posterior_intercostal_T7_L": {
"Type": "Classic",
"v1": "39",
"v2": "40",
"length": 18.517624169999998,
"width": 0.31,
"C": 610
},
"thoracic_aorta_V": {
"Type": "Classic",
"v1": "39",
"v2": "41",
"length": 12.156074649999999,
"width": 1.73584,
"C": 420
},
"thoracic_aorta_VI": {
"Type": "Classic",
"v1": "41",
"v2": "42",
"length": 0.32476667,
"width": 1.50307,
"C": 430
},
"celiac_trunk": {
"Type": "Classic",
"v1": "42",
"v2": "43",
"length": 1.6823833400000001,
"width": 0.656244,
"C": 510
},
"abdominal_aorta_I": {
"Type": "Classic",
"v1": "42",
"v2": "44",
"length": 1.39884345,
"width": 1.4814,
"C": 430
},
"common_hepatic": {
"Type": "Classic",
"v1": "43",
"v2": "45",
"length": 6.65545523,
"width": 0.537228,
"C": 540
},
"splenic_I": {
"Type": "Classic",
"v1": "43",
"v2": "46",
"length": 0.3948745,
"width": 0.433364,
"C": 570
},
"left_gastric": {
"Type": "Classic",
"v1": "46",
"v2": "47",
"length": 9.28669141,
"width": 0.301332,
"C": 610
},
"splenic_II": {
"Type": "Classic",
"v1": "46",
"v2": "48",
"length": 6.440274179999999,
"width": 0.433364,
"C": 570
},
"superior_mesenteric": {
"Type": "Classic",
"v1": "44",
"v2": "49",
"length": 21.639832379999998,
"width": 0.785224,
"C": 490
},
"abdominal_aorta_II": {
"Type": "Classic",
"v1": "44",
"v2": "50",
"length": 0.43191256,
"width": 1.4584,
"C": 430
},
"renal_L": {
"Type": "Classic",
"v1": "50",
"v2": "51",
"length": 2.1836535,
"width": 0.54178,
"C": 540
},
"abdominal_aorta_III": {
"Type": "Classic",
"v1": "50",
"v2": "52",
"length": 1.19772827,
"width": 1.43792,
"C": 430
},
"renal_R": {
"Type": "Classic",
"v1": "52",
"v2": "53",
"length": 3.77174249,
"width": 0.619474,
"C": 520
},
"abdominal_aorta_IV": {
"Type": "Classic",
"v1": "52",
"v2": "54",
"length": 5.40893766,
"width": 1.35488,
"C": 440
},
"inferior_mesenteric": {
"Type": "Classic",
"v1": "54",
"v2": "55",
"length": 9.02385435,
"width": 0.415496,
"C": 570
},
"abdominal_aorta_V": {
"Type": "Classic",
"v1": "54",
"v2": "56",
"length": 4.222474200000001,
"width": 1.23384,
"C": 440
},
"common_iliac_R": {
"Type": "Classic",
"v1": "56",
"v2": "57",
"length": 7.6428564,
"width": 0.858981,
"C": 480
},
"common_iliac_L": {
"Type": "Classic",
"v1": "56",
"v2": "58",
"length": 7.40380184,
"width": 0.858981,
"C": 480
},
"external_iliac_R": {
"Type": "Classic",
"v1": "57",
"v2": "59",
"length": 10.2210634,
"width": 0.656658,
"C": 510
},
"internal_iliac_R": {
"Type": "Classic",
"v1": "57",
"v2": "60",
"length": 7.25094209,
"width": 0.563658,
"C": 530
},
"femoral_R_I": {
"Type": "Classic",
"v1": "59",
"v2": "61",
"length": 3.15912244,
"width": 0.633272,
"C": 515
},
"profunda_femoris_R": {
"Type": "Classic",
"v1": "61",
"v2": "62",
"length": 23.83937248,
"width": 0.42889,
"C": 570
},
"femoral_R_II": {
"Type": "Classic",
"v1": "61",
"v2": "63",
"length": 31.92853229,
"width": 0.582986,
"C": 530
},
"popliteal_R_I": {
"Type": "Classic",
"v1": "63",
"v2": "64",
"length": 13.202902289999999,
"width": 0.505382,
"C": 550
},
"anterior_tibial_R": {
"Type": "Classic",
"v1": "64",
"v2": "65",
"length": 38.62156733,
"width": 0.23326,
"C": 640
},
"popliteal_R_II": {
"Type": "Classic",
"v1": "64",
"v2": "66",
"length": 0.8797428899999999,
"width": 0.471414,
"C": 555
},
"tibiofibular_trunk_R": {
"Type": "Classic",
"v1": "66",
"v2": "67",
"length": 3.61626766,
"width": 0.469292,
"C": 555
},
"posterior_tibial_R": {
"Type": "Classic",
"v1": "67",
"v2": "68",
"length": 38.28848516,
"width": 0.245872,
"C": 640
},
"external_iliac_L": {
"Type": "Classic",
"v1": "58",
"v2": "69",
"length": 10.22106793,
"width": 0.656658,
"C": 510
},
"internal_iliac_L": {
"Type": "Classic",
"v1": "58",
"v2": "70",
"length": 7.25093924,
"width": 0.563658,
"C": 530
},
"femoral_L_I": {
"Type": "Classic",
"v1": "69",
"v2": "71",
"length": 3.1591223600000005,
"width": 0.633272,
"C": 515
},
"profunda_femoris_L": {
"Type": "Classic",
"v1": "71",
"v2": "72",
"length": 23.83937548,
"width": 0.42889,
"C": 570
},
"femoral_L_II": {
"Type": "Classic",
"v1": "71",
"v2": "73",
"length": 31.92853183,
"width": 0.582986,
"C": 530
},
"popliteal_L_I": {
"Type": "Classic",
"v1": "73",
"v2": "74",
"length": 13.20280854,
"width": 0.505382,
"C": 550
},
"anterior_tibial_L": {
"Type": "Classic",
"v1": "74",
"v2": "75",
"length": 38.62164058,
"width": 0.23326,
"C": 640
},
"popliteal_L_II": {
"Type": "Classic",
"v1": "74",
"v2": "76",
"length": 0.87973824,
"width": 0.471414,
"C": 555
},
"tibiofibular_trunk_L": {
"Type": "Classic",
"v1": "76",
"v2": "77",
"length": 3.61636403,
"width": 0.469292,
"C": 555
},
"posterior_tibial_L": {
"Type": "Classic",
"v1": "77",
"v2": "78",
"length": 38.288464760000004,
"width": 0.245872,
"C": 640
},



	"middle_cerebral_L": {
		"Type": "Classic",
		"v1": "ICL_MCL_ACL_PCommL",
		"v2": "MCL_Terminal",
		"length": 5.2,
            	"width": 0.26,
            	"C": 700
	},
	"middle_cerebral_R": {
		"Type": "Classic",
		"v1": "ICR_MCR_ACR_PCommR",
		"v2": "MCR_Terminal",
		"length": 4.3,
            	"width": 0.25,
            	"C": 700
	},
	"right_anterior_cerebral_artery_A1": {

		"Type": "Classic",
		"v1": "ICR_MCR_ACR_PCommR",
		"v2": "ACoA_R",
		"length": 1.2,
            	"width": 0.24,
            	"C": 700
	},
	"left_anterior_cerebral_artery_A1": {

		"Type": "Classic",
		"v1": "ICL_MCL_ACL_PCommL",
		"v2": "ACoA_L",
		"length": 1.2,
            	"width": 0.24,
            	"C": 700
	},
	"anterior_communicating_artery": {

		"Type": "Classic",
		"v1": "ACoA_L",
		"v2": "ACoA_R",
		"length": 0.3,
            	"width": 0.15,
            	"C": 700
	},
	"right_anterior_cerebral_artery_A2": {

		"Type": "Classic",
		"v1": "ACoA_R",
		"v2": "RACA_A2_Terminal",
		"length": 10.3,
            	"width": 0.24,
            	"C": 700
	},
	"left_anterior_cerebral_artery_A2": {

		"Type": "Classic",
		"v1": "ACoA_L",
		"v2": "LACA_A2_Terminal",
		"length": 10.3,
            	"width": 0.24,
            	"C": 700
	},
	"left_posterior_communicating": {

		"Type": "Classic",
		"v1": "ICL_MCL_ACL_PCommL",
		"v2": "PCL_PCommL_30",
		"length": 3,
            	"width": 0.15,
            	"C": 700
	},
	"right_posterior_communicating": {

		"Type": "Classic",
		"v1": "ICR_MCR_ACR_PCommR",
		"v2": "PCR_PCommR_31",
		"length": 3,
            	"width": 0.15,
            	"C": 700
	},
	"posterior_cerebral_R": {

		"Type": "Classic",
		"v1": "PCR_PCommR_31",
		"v2": "PCR_Terminal",
		"length": 3,
            	"width": 0.2,
            	"C": 700
	},
	"posterior_cerebral_L": {

		"Type": "Classic",
		"v1": "PCL_PCommL_30",
		"v2": "PCL_Terminal",
		"length": 3,
            	"width": 0.2,
            	"C": 700
	},
	"30": {
		"Type": "Classic",
		"v1": "PCL_PCommL_30",
		"v2": "BASIL_30_31",
		"length": 1,
            	"width": 0.2,
            	"C": 700
	},
	"31": {
		"Type": "Classic",
		"v1": "PCR_PCommR_31",
		"v2": "BASIL_30_31",
		"length": 1,
            	"width": 0.2,
            	"C": 700
	},
	"basilar": {
		"Type": "Classic",
		"v1": "VR_BASIL_VL",
		"v2": "BASIL_30_31",
		"length": 2.6,
            	"width": 0.35,
            	"C": 700
	}

    },



    "MetaVertices": {


"Internal2": {
"Type": "Internal",
"edges": ["aortic_arch_Ip2", "brachiocephalic_trunk", "aortic_arch_II"],
"vertex": "2"
},

"Internal3": {
"Type": "Internal",
"edges": ["brachiocephalic_trunk", "subclavian_R_I", "common_carotid_R"],
"vertex": "3"
},

"Internal4": {
"Type": "Internal",
"edges": ["aortic_arch_II", "common_carotid_L", "aortic_arch_III"],
"vertex": "4"
},

"Internal5": {
"Type": "Internal",
"edges": ["subclavian_R_I", "vertebral_R", "subclavian_R_II"],
"vertex": "5"
},

"Internal6": {
"Type": "Internal",
"edges": ["common_carotid_R", "external_carotid_R", "internal_carotid_R"],
"vertex": "6"
},


"Internal8": {
"Type": "Internal",
"edges": ["subclavian_R_II", "axillary_R"],
"vertex": "8"
},

"Internal9": {
"Type": "Internal",
"edges": ["axillary_R", "brachial_R"],
"vertex": "9"
},

"Internal10": {
"Type": "Internal",
"edges": ["brachial_R", "radial_R", "ulnar_R_I"],
"vertex": "10"
},

"WK_radial_R": {
"Type": "Windkessel_vertex",
"edge": "radial_R",
"vertex": "11",
"P_out": 7000,
"R1": 16154,
"R2": 64617,
"C": 4.90883154e-06
},

"Internal12": {
"Type": "Internal",
"edges": ["ulnar_R_I", "common_interosseous_R", "ulnar_R_II"],
"vertex": "12"
},

"Internal13": {
"Type": "Internal",
"edges": ["common_interosseous_R", "posterior_interosseous_R"],
"vertex": "13"
},

"WK_ulnar_R_II": {
"Type": "Windkessel_vertex",
"edge": "ulnar_R_II",
"vertex": "14",
"P_out": 7000,
"R1": 16448,
"R2": 65792,
"C": 4.821160687e-06
},

"WK_posterior_interosseous_R": {
"Type": "Windkessel_vertex",
"edge": "posterior_interosseous_R",
"vertex": "15",
"P_out": 7000,
"R1": 66938,
"R2": 267753,
"C": 1.184657059e-06
},

"WK_external_carotid_R": {
"Type": "Windkessel_vertex",
"edge": "external_carotid_R",
"vertex": "16",
"P_out": 7000,
"R1": 13147,
"R2": 52588,
"C": 6.031649393000001e-06
},



"Internal18": {
"Type": "Internal",
"edges": ["common_carotid_L", "external_carotid_L", "internal_carotid_L"],
"vertex": "18"
},

"Internal19": {
"Type": "Internal",
"edges": ["aortic_arch_III", "subclavian_L_I", "aortic_arch_IV"],
"vertex": "19"
},

"WK_external_carotid_L": {
"Type": "Windkessel_vertex",
"edge": "external_carotid_L",
"vertex": "20",
"P_out": 7000,
"R1": 13193,
"R2": 52773,
"C": 6.010467524e-06
},


"Internal22": {
"Type": "Internal",
"edges": ["subclavian_L_I", "vertebral_L", "subclavian_L_II"],
"vertex": "22"
},

"Internal23": {
"Type": "Internal",
"edges": ["aortic_arch_IV", "thoracic_aorta_I"],
"vertex": "23"
},


"Internal25": {
"Type": "Internal",
"edges": ["subclavian_L_II", "axillary_L"],
"vertex": "25"
},

"Internal26": {
"Type": "Internal",
"edges": ["axillary_L", "brachial_L"],
"vertex": "26"
},

"Internal27": {
"Type": "Internal",
"edges": ["brachial_L", "radial_L", "ulnar_L_I"],
"vertex": "27"
},

"WK_radial_L": {
"Type": "Windkessel_vertex",
"edge": "radial_L",
"vertex": "28",
"P_out": 7000,
"R1": 15865,
"R2": 63460,
"C": 4.998338199e-06
},

"Internal29": {
"Type": "Internal",
"edges": ["ulnar_L_I", "common_interosseous_L", "ulnar_L_II"],
"vertex": "29"
},

"Internal30": {
"Type": "Internal",
"edges": ["common_interosseous_L", "posterior_interosseous_L"],
"vertex": "30"
},

"WK_ulnar_L_II": {
"Type": "Windkessel_vertex",
"edge": "ulnar_L_II",
"vertex": "31",
"P_out": 7000,
"R1": 16766,
"R2": 67067,
"C": 4.729528075e-06
},

"WK_posterior_interosseous_L": {
"Type": "Windkessel_vertex",
"edge": "posterior_interosseous_L",
"vertex": "32",
"P_out": 7000,
"R1": 67180,
"R2": 268723,
"C": 1.180381948e-06
},

"Internal33": {
"Type": "Internal",
"edges": ["thoracic_aorta_I", "posterior_intercostal_T6_R", "thoracic_aorta_II"],
"vertex": "33"
},

"WK_posterior_intercostal_T6_R": {
"Type": "Windkessel_vertex",
"edge": "posterior_intercostal_T6_R",
"vertex": "34",
"P_out": 7000,
"R1": 348778,
"R2": 1.39511e+06,
"C": 2.27362302e-07
},

"Internal35": {
"Type": "Internal",
"edges": ["thoracic_aorta_II", "posterior_intercostal_T6_L", "thoracic_aorta_III"],
"vertex": "35"
},

"WK_posterior_intercostal_T6_L": {
"Type": "Windkessel_vertex",
"edge": "posterior_intercostal_T6_L",
"vertex": "36",
"P_out": 7000,
"R1": 357816,
"R2": 1.43127e+06,
"C": 2.2161893199999999e-07
},

"Internal37": {
"Type": "Internal",
"edges": ["thoracic_aorta_III", "posterior_intercostal_T7_R", "thoracic_aorta_IV"],
"vertex": "37"
},

"WK_posterior_intercostal_T7_R": {
"Type": "Windkessel_vertex",
"edge": "posterior_intercostal_T7_R",
"vertex": "38",
"P_out": 7000,
"R1": 325407,
"R2": 1.30163e+06,
"C": 2.43691291e-07
},

"Internal39": {
"Type": "Internal",
"edges": ["thoracic_aorta_IV", "posterior_intercostal_T7_L", "thoracic_aorta_V"],
"vertex": "39"
},

"WK_posterior_intercostal_T7_L": {
"Type": "Windkessel_vertex",
"edge": "posterior_intercostal_T7_L",
"vertex": "40",
"P_out": 7000,
"R1": 328196,
"R2": 1.31278e+06,
"C": 2.4162083199999996e-07
},

"Internal41": {
"Type": "Internal",
"edges": ["thoracic_aorta_V", "thoracic_aorta_VI"],
"vertex": "41"
},

"Internal42": {
"Type": "Internal",
"edges": ["thoracic_aorta_VI", "celiac_trunk", "abdominal_aorta_I"],
"vertex": "42"
},

"Internal43": {
"Type": "Internal",
"edges": ["celiac_trunk", "common_hepatic", "splenic_I"],
"vertex": "43"
},

"Internal44": {
"Type": "Internal",
"edges": ["abdominal_aorta_I", "superior_mesenteric", "abdominal_aorta_II"],
"vertex": "44"
},

"WK_common_hepatic": {
"Type": "Windkessel_vertex",
"edge": "common_hepatic",
"vertex": "45",
"P_out": 7000,
"R1": 4687,
"R2": 18751,
"C": 1.6915397489e-05
},

"Internal46": {
"Type": "Internal",
"edges": ["splenic_I", "left_gastric", "splenic_II"],
"vertex": "46"
},

"WK_left_gastric": {
"Type": "Windkessel_vertex",
"edge": "left_gastric",
"vertex": "47",
"P_out": 7000,
"R1": 480751,
"R2": 1.923e+06,
"C": 1.6494799700000002e-07
},

"WK_splenic_II": {
"Type": "Windkessel_vertex",
"edge": "splenic_II",
"vertex": "48",
"P_out": 7000,
"R1": 6626,
"R2": 26506,
"C": 1.1966659456999999e-05
},

"WK_superior_mesenteric": {
"Type": "Windkessel_vertex",
"edge": "superior_mesenteric",
"vertex": "49",
"P_out": 7000,
"R1": 3054,
"R2": 12218,
"C": 2.5959674129e-05
},

"Internal50": {
"Type": "Internal",
"edges": ["abdominal_aorta_II", "renal_L", "abdominal_aorta_III"],
"vertex": "50"
},

"WK_renal_L": {
"Type": "Windkessel_vertex",
"edge": "renal_L",
"vertex": "51",
"P_out": 7000,
"R1": 3167,
"R2": 12671,
"C": 2.5031672325000002e-05
},

"Internal52": {
"Type": "Internal",
"edges": ["abdominal_aorta_III", "renal_R", "abdominal_aorta_IV"],
"vertex": "52"
},

"WK_renal_R": {
"Type": "Windkessel_vertex",
"edge": "renal_R",
"vertex": "53",
"P_out": 7000,
"R1": 3178,
"R2": 12714,
"C": 2.4947906336e-05
},

"Internal54": {
"Type": "Internal",
"edges": ["abdominal_aorta_IV", "inferior_mesenteric", "abdominal_aorta_V"],
"vertex": "54"
},

"WK_inferior_mesenteric": {
"Type": "Windkessel_vertex",
"edge": "inferior_mesenteric",
"vertex": "55",
"P_out": 7000,
"R1": 33478,
"R2": 133912,
"C": 2.368682545e-06
},

"Internal56": {
"Type": "Internal",
"edges": ["abdominal_aorta_V", "common_iliac_R", "common_iliac_L"],
"vertex": "56"
},

"Internal57": {
"Type": "Internal",
"edges": ["common_iliac_R", "external_iliac_R", "internal_iliac_R"],
"vertex": "57"
},

"Internal58": {
"Type": "Internal",
"edges": ["common_iliac_L", "external_iliac_L", "internal_iliac_L"],
"vertex": "58"
},

"Internal59": {
"Type": "Internal",
"edges": ["external_iliac_R", "femoral_R_I"],
"vertex": "59"
},

"WK_internal_iliac_R": {
"Type": "Windkessel_vertex",
"edge": "internal_iliac_R",
"vertex": "60",
"P_out": 7000,
"R1": 5803,
"R2": 23215,
"C": 1.3663322092e-05
},

"Internal61": {
"Type": "Internal",
"edges": ["femoral_R_I", "profunda_femoris_R", "femoral_R_II"],
"vertex": "61"
},

"WK_profunda_femoris_R": {
"Type": "Windkessel_vertex",
"edge": "profunda_femoris_R",
"vertex": "62",
"P_out": 7000,
"R1": 4797,
"R2": 19190,
"C": 1.6528795833e-05
},

"Internal63": {
"Type": "Internal",
"edges": ["femoral_R_II", "popliteal_R_I"],
"vertex": "63"
},

"Internal64": {
"Type": "Internal",
"edges": ["popliteal_R_I", "anterior_tibial_R", "popliteal_R_II"],
"vertex": "64"
},

"WK_anterior_tibial_R": {
"Type": "Windkessel_vertex",
"edge": "anterior_tibial_R",
"vertex": "65",
"P_out": 7000,
"R1": 34335,
"R2": 137341,
"C": 2.309554151e-06
},

"Internal66": {
"Type": "Internal",
"edges": ["popliteal_R_II", "tibiofibular_trunk_R"],
"vertex": "66"
},

"Internal67": {
"Type": "Internal",
"edges": ["tibiofibular_trunk_R", "posterior_tibial_R"],
"vertex": "67"
},

"WK_posterior_tibial_R": {
"Type": "Windkessel_vertex",
"edge": "posterior_tibial_R",
"vertex": "68",
"P_out": 7000,
"R1": 29618,
"R2": 118476,
"C": 2.677305842e-06
},

"Internal69": {
"Type": "Internal",
"edges": ["external_iliac_L", "femoral_L_I"],
"vertex": "69"
},

"WK_internal_iliac_L": {
"Type": "Windkessel_vertex",
"edge": "internal_iliac_L",
"vertex": "70",
"P_out": 7000,
"R1": 5821,
"R2": 23284,
"C": 1.3622524034999999e-05
},

"Internal71": {
"Type": "Internal",
"edges": ["femoral_L_I", "profunda_femoris_L", "femoral_L_II"],
"vertex": "71"
},

"WK_profunda_femoris_L": {
"Type": "Windkessel_vertex",
"edge": "profunda_femoris_L",
"vertex": "72",
"P_out": 7000,
"R1": 4800,
"R2": 19200,
"C": 1.652e-05
},

"Internal73": {
"Type": "Internal",
"edges": ["femoral_L_II", "popliteal_L_I"],
"vertex": "73"
},

"Internal74": {
"Type": "Internal",
"edges": ["popliteal_L_I", "anterior_tibial_L", "popliteal_L_II"],
"vertex": "74"
},

"WK_anterior_tibial_L": {
"Type": "Windkessel_vertex",
"edge": "anterior_tibial_L",
"vertex": "75",
"P_out": 7000,
"R1": 34346,
"R2": 137384,
"C": 2.308827861e-06
},

"Internal76": {
"Type": "Internal",
"edges": ["popliteal_L_II", "tibiofibular_trunk_L"],
"vertex": "76"
},

"Internal77": {
"Type": "Internal",
"edges": ["tibiofibular_trunk_L", "posterior_tibial_L"],
"vertex": "77"
},

"WK_posterior_tibial_L": {
"Type": "Windkessel_vertex",
"edge": "posterior_tibial_L",
"vertex": "78",
"P_out": 7000,
"R1": 29631,
"R2": 118527,
"C": 2.676139423e-06
},




       "WK_middle_cerebral_R": {
            "Type": "Windkessel_vertex",
            "edge": "middle_cerebral_R",
            "vertex": "MCR_Terminal",
            "P_out": 7000,
            "comment_P_out": "its around 5 mmhg",
	    "R1": 6060.159632999999,
            "R2": 25040.638534,
            "C": 9.833420276e-06
        },
        "WK_middle_cerebral_L": {
            "Type": "Windkessel_vertex",
            "edge": "middle_cerebral_L",
            "vertex": "MCL_Terminal",
            "P_out": 7000,
            "comment_P_out": "its around 5 mmhg",
            "R1": 6079.398708,
            "R2": 25117.594831,
            "C": 9.800685746e-06
        },
        "WK_RACA_A2_Terminal": {
            "Type": "Windkessel_vertex",
            "edge": "right_anterior_cerebral_artery_A2",
            "vertex": "RACA_A2_Terminal",
            "P_out": 7000,
            "comment_P_out": "its around 5 mmhg",
            "R1": 15386.45487364621,
            "R2": 61546.584837545124,
            "C": 4.1286590039999997e-06
        },
        "WK_LACA_A2_Terminal": {
            "Type": "Windkessel_vertex",
            "edge": "left_anterior_cerebral_artery_A2",
            "vertex": "LACA_A2_Terminal",
            "P_out": 7000,
            "comment_P_out": "its around 5 mmhg",
            "R1": 15386.45487364621,
            "R2": 61546.584837545124,
            "C": 4.1286590039999997e-06
        },
	"InternalVR_BASIL_VL": {
            "Type": "Internal",
            "edges": ["vertebral_R", "basilar", "vertebral_L"],
            "vertex": "VR_BASIL_VL"
	},
	"InternalICR_MCR_ACR_PCommR": {
            "Type": "Internal",
            "edges": ["internal_carotid_R", "middle_cerebral_R", "right_anterior_cerebral_artery_A1", "right_posterior_communicating"],
            "vertex": "ICR_MCR_ACR_PCommR"
	},
	"InternalICL_MCL_ACL_PCommL": {
            "Type": "Internal",
            "edges": ["internal_carotid_L", "left_posterior_communicating", "left_anterior_cerebral_artery_A1", "middle_cerebral_L"],
            "vertex": "ICL_MCL_ACL_PCommL"
	},
	"InternalPCR_PCommR_31": {
            "Type": "Internal",
            "edges": ["posterior_cerebral_R", "right_posterior_communicating", "31"],
            "vertex": "PCR_PCommR_31"
	},
	"InternalPCL_PCommL_30": {
            "Type": "Internal",
            "edges": ["posterior_cerebral_L", "30", "left_posterior_communicating"],
            "vertex": "PCL_PCommL_30"
	},
	"InternalBASIL_30_31": {
            "Type": "Internal",
            "edges": ["basilar", "31", "30"],
            "vertex": "BASIL_30_31"
	},
    "InternalACoA_R": {
            "Type": "Internal",
            "edges": ["right_anterior_cerebral_artery_A1", "anterior_communicating_artery", "right_anterior_cerebral_artery_A2"],
            "vertex": "ACoA_R"
    },
    "InternalACoA_L": {
            "Type": "Internal",
            "edges": ["left_anterior_cerebral_artery_A1", "anterior_communicating_artery", "left_anterior_cerebral_artery_A2"],
            "vertex": "ACoA_L"
    },
        "WK_posterior_cerebral_L": {
            "Type": "Windkessel_vertex",
            "edge": "posterior_cerebral_L",
            "vertex": "PCL_Terminal",
            "P_out": 7000,
            "comment_P_out": "its around 5 mmhg",
            "R1": 20243.003004000002,
            "R2": 80972.01201800001,
            "C": 2.943515132e-06
        },
        "WK_posterior_cerebral_R": {
            "Type": "Windkessel_vertex",
            "edge": "posterior_cerebral_R",
            "vertex": "PCR_Terminal",
            "P_out": 7000,
            "comment_P_out": "its around 5 mmhg",
            "R1": 20104.264625,
            "R2": 80417.05849899999,
            "C": 3.1286590039999997e-06
        },







        "WK6": {
            "Type": "TerminalResistanceCoronary",
            "edge": "Coronary6",
            "vertex": "Coronary6",
            "P_out": 7000,
            "comment_P_out": "its around 5 mmhg",
            "R": 612736
        },
        "WK7": {
            "Type": "TerminalResistanceCoronary",
            "edge": "Coronary7",
            "vertex": "Coronary7",
            "P_out": 7000,
            "comment_P_out": "its around 5 mmhg",
            "R": 612736
        },
        "WK10": {
            "Type": "TerminalResistanceCoronary",
            "edge": "Coronary10",
            "vertex": "Coronary10",
            "P_out": 7000,
            "comment_P_out": "its around 5 mmhg",
            "R": 481030
        },
        "WK11": {
            "Type": "TerminalResistanceCoronary",
            "edge": "Coronary11",
            "vertex": "Coronary11",
            "P_out": 7000,
            "comment_P_out": "its around 5 mmhg",
            "R": 405071
        },
        "WK13": {
            "Type": "TerminalResistanceCoronary",
            "edge": "Coronary13",
            "vertex": "Coronary13",
            "P_out": 7000,
            "comment_P_out": "its around 5 mmhg",
            "R": 291343
        },
        "WK15": {
            "Type": "TerminalResistanceCoronary",
            "edge": "Coronary15",
            "vertex": "Coronary15",
            "P_out": 7000,
            "comment_P_out": "its around 5 mmhg",
            "R": 386549
        },
        "WK17": {
            "Type": "TerminalResistanceCoronary",
            "edge": "Coronary17",
            "vertex": "Coronary17",
            "P_out": 7000,
            "comment_P_out": "its around 5 mmhg",
            "R": 612736
        },
        "WK18": {
            "Type": "TerminalResistanceCoronary",
            "edge": "Coronary18",
            "vertex": "Coronary18",
            "P_out": 7000,
            "comment_P_out": "its around 5 mmhg",
            "R": 612736
        },
        "WK21": {
            "Type": "TerminalResistanceCoronary",
            "edge": "Coronary21",
            "vertex": "Coronary21",
            "P_out": 7000,
            "comment_P_out": "its around 5 mmhg",
            "R": 427882
        },
        "WK23": {
            "Type": "TerminalResistanceCoronary",
            "edge": "Coronary23",
            "vertex": "Coronary23",
            "P_out": 7000,
            "comment_P_out": "its around 5 mmhg",
            "R": 1288135
        },
        "WK24": {
            "Type": "TerminalResistanceCoronary",
            "edge": "Coronary24",
            "vertex": "Coronary24",
            "P_out": 7000,
            "comment_P_out": "its around 5 mmhg",
            "R": 1288135
        },
        "WK27": {
            "Type": "TerminalResistanceCoronary",
            "edge": "Coronary27",
            "vertex": "Coronary27",
            "P_out": 7000,
            "comment_P_out": "its around 5 mmhg",
            "R": 680035
        },
        "WK28": {
            "Type": "TerminalResistanceCoronary",
            "edge": "Coronary28",
            "vertex": "Coronary28",
            "P_out": 7000,
            "comment_P_out": "its around 5 mmhg",
            "R": 725830
        },
        "WK30": {
            "Type": "TerminalResistanceCoronary",
            "edge": "Coronary30",
            "vertex": "Coronary30",
            "P_out": 7000,
            "comment_P_out": "its around 5 mmhg",
            "R": 665694
        },
        "WK32": {
            "Type": "TerminalResistanceCoronary",
            "edge": "Coronary32",
            "vertex": "Coronary32",
            "P_out": 7000,
            "comment_P_out": "its around 5 mmhg",
            "R": 742084
        },
        "WK34": {
            "Type": "TerminalResistanceCoronary",
            "edge": "Coronary34",
            "vertex": "Coronary34",
            "P_out": 7000,
            "comment_P_out": "its around 5 mmhg",
            "R": 5561604
        },
        "WK35": {
            "Type": "TerminalResistanceCoronary",
            "edge": "Coronary35",
            "vertex": "Coronary35",
            "P_out": 7000,
            "comment_P_out": "its around 5 mmhg",
            "R": 187454
        },
        "WK38": {
            "Type": "TerminalResistanceCoronary",
            "edge": "Coronary38",
            "vertex": "Coronary38",
            "P_out": 7000,
            "comment_P_out": "its around 5 mmhg",
            "R": 2092055
        },
        "WK39": {
            "Type": "TerminalResistanceCoronary",
            "edge": "Coronary39",
            "vertex": "Coronary39",
            "P_out": 7000,
            "comment_P_out": "its around 5 mmhg",
            "R": 2092055
        },
        "WK40": {
            "Type": "TerminalResistanceCoronary",
            "edge": "Coronary40",
            "vertex": "Coronary40",
            "P_out": 7000,
            "comment_P_out": "its around 5 mmhg",
            "R": 276827
        },
        "WK44": {
            "Type": "TerminalResistanceCoronary",
            "edge": "Coronary44",
            "vertex": "Coronary44",
            "P_out": 7000,
            "comment_P_out": "its around 5 mmhg",
            "R": 2092055
        },
        "WK45": {
            "Type": "TerminalResistanceCoronary",
            "edge": "Coronary45",
            "vertex": "Coronary45",
            "P_out": 7000,
            "comment_P_out": "its around 5 mmhg",
            "R": 2092055
        },
        "WK47": {
            "Type": "TerminalResistanceCoronary",
            "edge": "Coronary47",
            "vertex": "Coronary47",
            "P_out": 7000,
            "comment_P_out": "its around 5 mmhg",
            "R": 1601241
        },
        "WK48": {
            "Type": "TerminalResistanceCoronary",
            "edge": "Coronary48",
            "vertex": "Coronary48",
            "P_out": 7000,
            "comment_P_out": "its around 5 mmhg",
            "R": 2092055
        },

        "WK51": {
            "Type": "TerminalResistanceCoronary",
            "edge": "Coronary51",
            "vertex": "Coronary51",
            "P_out": 7000,
            "comment_P_out": "its around 5 mmhg",
            "R": 1081150
        },
        "WK53": {
            "Type": "TerminalResistanceCoronary",
            "edge": "Coronary53",
            "vertex": "Coronary53",
            "P_out": 7000,
            "comment_P_out": "its around 5 mmhg",
            "R": 2092055
        },
        "WK54": {
            "Type": "TerminalResistanceCoronary",
            "edge": "Coronary54",
            "vertex": "Coronary54",
            "P_out": 7000,
            "comment_P_out": "its around 5 mmhg",
            "R": 2092055
        },
        "WK57": {
            "Type": "TerminalResistanceCoronary",
            "edge": "Coronary57",
            "vertex": "Coronary57",
            "P_out": 7000,
            "comment_P_out": "its around 5 mmhg",
            "R": 2092055
        },
        "WK58": {
            "Type": "TerminalResistanceCoronary",
            "edge": "Coronary58",
            "vertex": "Coronary58",
            "P_out": 7000,
            "comment_P_out": "its around 5 mmhg",
            "R": 2092055
        },
        "WK60": {
            "Type": "TerminalResistanceCoronary",
            "edge": "Coronary60",
            "vertex": "Coronary60",
            "P_out": 7000,
            "comment_P_out": "its around 5 mmhg",
            "R": 2092055
        },
        "WK62": {
            "Type": "TerminalResistanceCoronary",
            "edge": "Coronary62",
            "vertex": "Coronary62",
            "P_out": 7000,
            "comment_P_out": "its around 5 mmhg",
            "R": 2092055
        },
        "WK64": {
            "Type": "TerminalResistanceCoronary",
            "edge": "Coronary64",
            "vertex": "Coronary64",
            "P_out": 7000,
            "comment_P_out": "its around 5 mmhg",
            "R": 2092055
        },
        "WK65": {
            "Type": "TerminalResistanceCoronary",
            "edge": "Coronary65",
            "vertex": "Coronary65",
            "P_out": 7000,
            "comment_P_out": "its around 5 mmhg",
            "R": 2092055
        },



        "InternalCoronaryArtConnect": {
            "Type": "Internal",
            "edges": ["aortic_arch_Ip0", "aortic_arch_Ip1", "LCA_start", "RCA_start"],
            "vertex": "coronaryArtConnect"
        },

        "Internal36-37-40-41": {
            "Type": "Internal",
            "edges": ["RCA_start", "Coronary37", "Coronary40", "Coronary41"],
            "vertex": "Coronary36-37-40-41"
        },
        "Internal37-38-39": {
            "Type": "Internal",
            "edges": ["Coronary37", "Coronary38", "Coronary39"],
            "vertex": "Coronary37-38-39"
        },
        "Internal41-42-49": {
            "Type": "Internal",
            "edges": ["Coronary41", "Coronary42", "Coronary49"],
            "vertex": "Coronary41-42-49"
        },
        "Internal42-43-46": {
            "Type": "Internal",
            "edges": ["Coronary42", "Coronary43", "Coronary46"],
            "vertex": "Coronary42-43-46"
        },
        "Internal43-44-45": {
            "Type": "Internal",
            "edges": ["Coronary43", "Coronary44", "Coronary45"],
            "vertex": "Coronary43-44-45"
        },
        "Internal46-47-48": {
            "Type": "Internal",
            "edges": ["Coronary46", "Coronary47", "Coronary48"],
            "vertex": "Coronary46-47-48"
        },
        "Internal49-50-55": {
            "Type": "Internal",
            "edges": ["Coronary49", "Coronary50", "Coronary55"],
            "vertex": "Coronary49-50-55"
        },
        "Internal50-51-52": {
            "Type": "Internal",
            "edges": ["Coronary50", "Coronary51", "Coronary52"],
            "vertex": "Coronary50-51-52"
        },
        "Internal52-53-54": {
            "Type": "Internal",
            "edges": ["Coronary52", "Coronary53", "Coronary54"],
            "vertex": "Coronary52-53-54"
        },
        "Internal55-56-59": {
            "Type": "Internal",
            "edges": ["Coronary55", "Coronary56", "Coronary59"],
            "vertex": "Coronary55-56-59"
        },
        "Internal56-57-58": {
            "Type": "Internal",
            "edges": ["Coronary56", "Coronary57", "Coronary58"],
            "vertex": "Coronary56-57-58"
        },
        "Internal59-60-61": {
            "Type": "Internal",
            "edges": ["Coronary59", "Coronary60", "Coronary61"],
            "vertex": "Coronary59-60-61"
        },
        "Internal61-62-63": {
            "Type": "Internal",
            "edges": ["Coronary61", "Coronary62", "Coronary63"],
            "vertex": "Coronary61-62-63"
        },
        "Internal63-64-65": {
            "Type": "Internal",
            "edges": ["Coronary63", "Coronary64", "Coronary65"],
            "vertex": "Coronary63-64-65"
        },
     



        "Internal3-4-19": {
            "Type": "Internal",
            "edges": ["LCA_start", "Coronary4", "Coronary19"],
            "vertex": "Coronary3-4-19"
        },
        "Internal4-5-8": {
            "Type": "Internal",
            "edges": ["Coronary4", "Coronary5", "Coronary8"],
            "vertex": "Coronary4-5-8"
        },
        "Internal5-6-7": {
            "Type": "Internal",
            "edges": ["Coronary5", "Coronary6", "Coronary7"],
            "vertex": "Coronary5-6-7"
        },
        "Internal8-9-12": {
            "Type": "Internal",
            "edges": ["Coronary8", "Coronary9", "Coronary12"],
            "vertex": "Coronary8-9-12"
        },

        "Internal9-10-11": {
            "Type": "Internal",
            "edges": ["Coronary9", "Coronary10", "Coronary11"],
            "vertex": "Coronary9-10-11"
        },
        "Internal12-13-14": {
            "Type": "Internal",
            "edges": ["Coronary12", "Coronary13", "Coronary14"],
            "vertex": "Coronary12-13-14"
        },
        "Internal14-15-16": {
            "Type": "Internal",
            "edges": ["Coronary14", "Coronary15", "Coronary16"],
            "vertex": "Coronary14-15-16"
        },
        "Internal16-17-18": {
            "Type": "Internal",
            "edges": ["Coronary16", "Coronary17", "Coronary18"],
            "vertex": "Coronary16-17-18"
        },


        "Internal19-20-25": {
            "Type": "Internal",
            "edges": ["Coronary19", "Coronary20", "Coronary25"],
            "vertex": "Coronary19-20-25"
        },
        "Internal20-21-22": {
            "Type": "Internal",
            "edges": ["Coronary20", "Coronary21", "Coronary22"],
            "vertex": "Coronary20-21-22"
        },
        "Internal22-23-24": {
            "Type": "Internal",
            "edges": ["Coronary22", "Coronary23", "Coronary24"],
            "vertex": "Coronary22-23-24"
        },
        "Internal25-26-29": {
            "Type": "Internal",
            "edges": ["Coronary25", "Coronary26", "Coronary29"],
            "vertex": "Coronary25-26-29"
        },

        "Internal26-27-28": {
            "Type": "Internal",
            "edges": ["Coronary26", "Coronary27", "Coronary28"],
            "vertex": "Coronary26-27-28"
        },
        "Internal29-30-31": {
            "Type": "Internal",
            "edges": ["Coronary29", "Coronary30", "Coronary31"],
            "vertex": "Coronary29-30-31"
        },
        "Internal31-32-33": {
            "Type": "Internal",
            "edges": ["Coronary31", "Coronary32", "Coronary33"],
            "vertex": "Coronary31-32-33"
        },
        "Internal33-34-35": {
            "Type": "Internal",
            "edges": ["Coronary33", "Coronary34", "Coronary35"],
            "vertex": "Coronary33-34-35"
        }



    }
}
